{
    "pageID": "event-detail",
    "meta": {
        "title": "Barcelona Lynk & Co Experience",
        "summary": "We went to Barcelona for a once-in-a-lifetime experience. We broke all the conventions of ‘car’ events to let everyone know that Lynk & Co is here to transform city life.",
        "image": "https://lynkcoprdcdn.azureedge.net/-/media/news-3.jpg"
    },
    "language": "en",
    "sections": [
        {
            "type": "generic",
            "class": "news-hero",
            "sectionID": "",
            "components": [
                {
                    "type": "hero",
                    "data": {
                        "type": null,
                        "title": {
                            "children": "Barcelona Lynk & Co Experience",
                            "asHTML": false
                        },
                        "subtitle": {
                            "children": "",
                            "asHTML": false
                        },
                        "background": {
                            "type": "image",
                            "value": "https://lynkcoprdcdn.azureedge.net/-/media/lynkcov2/images/news/barcelona.jpg",
                            "imagesizes": [
                                {
                                    "HashedValue": "https://lynkcoprdcdn.azureedge.net/-/media/lynkcov2/images/news/barcelona.jpg?la=en&w=740&hash=6A8DBAA64E0EE52D660780F3D12F681E6892A9A7",
                                    "Width": 740,
                                    "Height": 493
                                },
                                {
                                    "HashedValue": "https://lynkcoprdcdn.azureedge.net/-/media/lynkcov2/images/news/barcelona.jpg?la=en&w=980&hash=9B090D4305BE0D8D90634D6778A92FB3C296D3CF",
                                    "Width": 980,
                                    "Height": 653
                                },
                                {
                                    "HashedValue": "https://lynkcoprdcdn.azureedge.net/-/media/lynkcov2/images/news/barcelona.jpg?la=en&w=1280&hash=76F495C5F48806664EA5BDA1E4FCB46EFF9994F8",
                                    "Width": 1280,
                                    "Height": 853
                                }
                            ]
                        },
                        "scrolldownButton": {
                            "enableScrollDown": true,
                            "scrolldownText": "Scroll Down"
                        }
                    }
                }
            ]
        },
        {
            "type": "generic",
            "class": "section-details padding50",
            "sectionID": "",
            "components": [
                {
                    "type": "text",
                    "data": {
                        "children": "We went to Barcelona for a once-in-a-lifetime experience",
                        "tag": "h4",
                        "size": "lg",
                        "asHTML": false
                    }
                },
                {
                    "type": "text",
                    "data": {
                        "children": "We went to Barcelona for a once-in-a-lifetime experience. We broke all the conventions of ‘car’ events to let everyone know that Lynk & Co is here to transform city life.",
                        "tag": "p",
                        "size": "sm",
                        "asHTML": false
                    }
                }
            ]
        },
        {
            "type": "generic",
            "class": "section-details",
            "sectionID": "",
            "components": [
                {
                    "type": "text",
                    "data": {
                        "children": "For our latest event, we took over an old car park, for a unique audio-visual-culinary-social experience. Why? Well, in the future, we won’t need nearly as many parking spaces. When we reach our destination, we’ll press the share button and our Lynk & Co will be in use, instead of sitting in a car park, costing money. ",
                        "tag": "p",
                        "size": "sm",
                        "asHTML": false
                    }
                }
            ]
        },
        {
            "type": "generic",
            "class": "news-share",
            "sectionID": "",
            "components": [
                {
                    "type": "share",
                    "data": {
                        "title": "Share",
                        "shareTitle": "Barcelona Lynk & Co Experience",
                        "image": "https://lynkcoprdcdn.azureedge.net/-/media/news-3.jpg",
                        "info": "We went to Barcelona for a once-in-a-lifetime experience. We broke all the conventions of ‘car’ events to let everyone know that Lynk & Co is here to transform city life.",
                        "imagesizes": [
                            {
                                "HashedValue": "https://lynkcoprdcdn.azureedge.net/-/media/news-3.jpg?la=en&w=740&hash=5515233F61D835537812477FAC859412D5AD3F42",
                                "Width": 740,
                                "Height": 494
                            },
                            {
                                "HashedValue": "https://lynkcoprdcdn.azureedge.net/-/media/news-3.jpg?la=en&w=980&hash=78AB075C256714A8B08D8C1637FA1F5B2376FA52",
                                "Width": 980,
                                "Height": 654
                            }
                        ]
                    }
                }
            ]
        },
        {
            "type": "generic",
            "class": "section-centered",
            "sectionID": "",
            "components": [
                {
                    "type": "button",
                    "data": {
                        "title": "Back to news",
                        "link": "/news-events"
                    }
                }
            ]
        }
    ],
    "breadcrumbs": [
        {
            "label": "Home",
            "link": "/"
        },
        {
            "label": "News & Events",
            "link": "/news-events"
        },
        {
            "label": "Lynk and Co Experience",
            "link": "/news-events/lynk-and-co-experience"
        }
    ]
}