{
    "pageID": "/press/europe-brand-launch",
    "meta": {
        "title": "Europe Brand Launch"
    },
    "language": "en",
    "sections": [
        {
            "type": "generic",
            "class": "news-hero",
            "sectionID": "",
            "components": [
                {
                    "type": "hero",
                    "data": {
                        "button": {
                            "anchor": "https://lynkcoprdcdn.azureedge.net/downloads/LynkCo_EuropeLaunch.zip",
                            "title": "Download"
                        },
                        "type": null,
                        "title": {
                            "children": "Europe Brand Launch",
                            "asHTML": false
                        },
                        "subtitle": {
                            "children": "",
                            "asHTML": false
                        },
                        "background": {
                            "type": "image",
                            "value": "https://lynkcoprdcdn.azureedge.net/-/media/lynkcov2/images/pages/press/press-detail/lynkcoeuropelaunchhero.jpg",
                            "imagesizes": []
                        },
                        "scrolldownButton": {
                            "enableScrollDown": true,
                            "scrolldownText": "Scroll down"
                        }
                    }
                }
            ]
        },
        {
            "type": "generic",
            "class": "section-details padding50",
            "sectionID": "",
            "components": [
                {
                    "type": "text",
                    "data": {
                        "children": "Lynk & Co confirms its European territories roll-out plan.",
                        "tag": "h4",
                        "asHTML": false
                    }
                },
                {
                    "type": "text",
                    "data": {
                        "children": "Gothenburg, 26th March 2018 – Lynk & Co also revealed the third model in its stunning line-up of cars - the 02; which is a sporty, adventurous, dynamic, daring, confident and fun vehicle, created specially for the globally connected urbanites and sits at the absolute centre of the brand.",
                        "tag": "p",
                        "asHTML": false
                    }
                }
            ]
        },
        {
            "type": "generic",
            "class": "Press Alain 1",
            "sectionID": "",
            "components": [
                {
                    "type": "press-download",
                    "data": {
                        "images": [
                            "https://lynkcoprdcdn.azureedge.net/-/media/lynkcov2/images/pages/press/press-detail/lynkcoeuropelaunchthumbnail1.jpg",
                            "https://lynkcoprdcdn.azureedge.net/-/media/lynkcov2/images/pages/press/press-detail/lynkcoeuropelaunchthumbnail2.jpg",
                            "https://lynkcoprdcdn.azureedge.net/-/media/lynkcov2/images/pages/press/press-detail/lynkcoeuropelaunchthumbnail3.jpg"
                        ],
                        "button": {
                            "anchor": "https://lynkcoprdcdn.azureedge.net/downloads/EuropeanLaunchEventMar18.zip",
                            "title": "Download"
                        },
                        "info": "Download include 11 images"
                    }
                }
            ]
        },
        {
            "type": "generic",
            "class": "Europe Sales Launch Section 3",
            "sectionID": "",
            "components": [
                {
                    "type": "button",
                    "data": {
                        "title": "",
                        "link": "/press"
                    }
                }
            ]
        }
    ],
    "breadcrumbs": [
        {
            "label": "Home",
            "link": "/"
        },
        {
            "label": "Press",
            "link": "/press"
        },
        {
            "label": "Europe Brand Launch",
            "link": "/press/europe-brand-launch"
        }
    ]
}